// Jest Snapshot v1, https://goo.gl/fbAQLP

exports[`should display article names and their authors 1`] = `
<Fragment>
  <div
    className="media"
    itemScope={true}
    itemType="https://schema.org/ScholarlyArticle"
    key="article_arbitrary-id"
  >
    <p
      className="media-content"
    >
      <Link
        replace={false}
        to="/profile/0000-0002-4013-9889"
      >
        Prostetnic Vogon Jeltz
      </Link>
       published 
      <Link
        itemProp="url"
        replace={false}
        title="In this article we discuss different approaches to calculating the optimal routes for intergalactic bypasses."
        to="/article/arbitrary-id"
      >
        Route optimisations for intergalactic bypasses
      </Link>
      .
    </p>
  </div>
  <div
    className="media"
    itemScope={true}
    itemType="https://schema.org/ScholarlyArticle"
    key="article_arbitrary-id"
  >
    <p
      className="media-content"
    >
      <strong>
        Mr L Prosser
      </strong>
       published 
      <Link
        itemProp="url"
        replace={false}
        title="Access this article for free"
        to="/article/arbitrary-id"
      >
        On the relocation of human debris
      </Link>
      .
    </p>
  </div>
</Fragment>
`;
